Event	0
5
6.09815	0.302654	1.51564	5081.8	-5074.07	280.161
6.09815	0.302654	1.51564	5081.8	5074.07	-280.161
3.23144	0.702858	-1.98293	2692.86	-2467.39	1078.67
7.57284	-0.418544	-1.34287	6310.7	-6147.48	-1425.98
6.52969	-0.879646	1.86002	5441.41	5215.39	1551.96

9
3	0	0

3	1	0

3	2	0

3	3	0

3	4	0

3	5	0

3	6	0

3	7	0

3	8	0


Event	1
5
1.22625	0.071171	2.10858	1021.88	-877.639	-523.437
3.2302	0.730601	-0.638977	2691.84	-1605.34	-2160.75
5.13486	-0.483654	-3.01335	4279.05	-547.258	4243.91
5.6372	-0.649999	1.34677	4697.66	4580.27	-1043.62
3.78527	-0.638108	2.28207	3154.4	2389.56	2059.18

9
3	0	0

3	1	0

3	2	0

3	3	0

3	4	0

3	5	0

3	6	0

3	7	0

3	8	0


Event	2
5
2.67888	0.255427	-2.31532	2232.4	1641.73	-1512.72
1.54691	-0.862071	-2.96864	1289.09	-221.837	1269.86
7.3732	0.240263	1.65426	6144.34	6122.95	512.22
4.78202	-0.872463	0.21171	3985.02	837.378	-3896.05
6.30126	0.886216	2.49753	5251.05	3153	4199.06

9
3	0	0

3	1	0

3	2	0

3	3	0

3	4	0

3	5	0

3	6	0

3	7	0

3	8	0


Event	3
5
7.68446	-0.502642	-1.6623	6403.72	6376.93	-585.134
5.13701	-0.070214	2.72134	4280.84	1746.54	3908.35
2.71959	0.318272	0.718477	2266.32	1491.78	-1706.11
7.80456	0.471727	-0.459304	6503.8	-2883.29	-5829.76
2.05434	-0.489571	2.36505	1711.95	1199.77	1221.2

9
3	0	1
0.000420146	1	1.25683	0.000804424
0	19.15	16.55	8.15
1	38.25	32.65	16.25
2	59.85	50.45	25.35

3	1	1
0.000402004	1	1.25682	0.000801682
1	38.25	32.65	16.25
2	59.85	50.45	25.35
3	84.85	70.55	35.75

3	2	1
0.000406869	1	1.25697	0.000507474
2	59.85	50.45	25.35
3	84.85	70.55	35.75
4	114.95	94.05	48.15

3	3	1
0.000464636	1	1.25588	0.00168216
3	84.85	70.55	35.75
4	114.95	94.05	48.15
5	210.25	163.05	86.55

3	4	1
0.000433564	1	1.255	6.29425e-05
4	114.95	94.05	48.15
5	210.25	163.05	86.55
6	320.35	234.05	129.25

3	5	0

3	6	0

3	7	0

3	8	0


Event	4
5
2.13551	0.161589	2.16639	1779.59	-1473.18	-998.352
6.2982	-0.23461	-0.243157	5248.5	-1263.67	-5094.1
6.6498	0.0624263	-1.71597	5541.5	-5483.2	801.684
1.3134	-0.827268	0.515861	1094.5	539.898	-952.068
2.1323	0.603833	-2.00702	1776.92	-1610.51	750.79

9
3	0	0

3	1	0

3	2	0

3	3	0

3	4	0

3	5	0

3	6	0

3	7	0

3	8	0


Event	5
5
6.93994	0.153472	2.86126	5783.28	-1600.09	-5557.53
6.552	0.924241	-1.76823	5460	-5353.93	1071
4.8903	0.39949	-2.84146	4075.25	-1204.83	3893.07
1.39472	0.587344	2.87281	1162.26	308.644	1120.53
8.59724	0.310995	1.39672	7164.37	7056.09	-1240.85

9
3	0	0

3	1	0

3	2	0

3	3	0

3	4	0

3	5	0

3	6	0

3	7	0

3	8	0


Event	6
5
5.89757	0.311659	2.11632	4914.64	-4201.31	-2550.04
3.82015	0.0918735	2.62077	3183.46	1584.07	2761.36
5.85854	-0.339516	-3.01673	4882.12	-607.988	4844.11
6.19613	-0.998217	-0.188759	5163.44	-968.867	-5071.73
6.16937	-0.0550082	-0.996669	5141.14	-4316.84	-2792.16

9
3	0	0

3	1	0

3	2	0

3	3	0

3	4	0

3	5	0

3	6	0

3	7	0

3	8	0


Event	7
5
6.28144	-0.385204	1.46556	5234.54	-5205.58	549.872
5.33546	-0.309561	-1.84601	4446.21	-4278.89	1208.25
7.06289	0.0844058	2.3603	5885.74	4144.74	4178.88
3.32207	0.0410974	-0.540006	2768.39	-1423.34	-2374.46
2.54322	0.960296	2.75092	2119.35	807.063	1959.66

9
3	0	0

3	1	0

3	2	0

3	3	0

3	4	0

3	5	0

3	6	0

3	7	0

3	8	0


Event	8
5
6.47947	0.929422	1.16511	5399.56	-4961.28	2130.95
6.28961	-0.76721	1.75573	5241.34	5151.97	963.783
3.87401	0.0906945	1.32177	3228.35	3128.76	-795.667
1.15867	0.785201	-1.88804	965.556	-917.372	301.208
8.51388	-0.102612	2.62555	7094.9	3500.91	6171

9
3	0	1
0.000209975	-1	0.752193	0.000861585
0	9.15	21.45	24.95
1	18.85	44.45	51.65
2	30.55	72.65	84.25

3	1	1
0.000108262	-1	0.751215	0.00281763
1	18.85	44.45	51.65
2	30.55	72.65	84.25
3	42.55	101.85	118.15

3	2	1
0.000210773	-1	0.751365	0.00311804
2	30.55	72.65	84.25
3	42.55	101.85	118.15
4	57.55	139.15	161.05

3	3	1
0.00019007	-1	0.752086	0.00167799
3	42.55	101.85	118.15
4	57.55	139.15	161.05
5	102.55	256.35	295.45

3	4	1
0.00017854	-1	0.750963	0.000566483
4	57.55	139.15	161.05
5	102.55	256.35	295.45
6	141.45	364.55	418.65

3	5	1
0.000184799	-1	0.750397	0.000565231
5	102.55	256.35	295.45
6	141.45	364.55	418.65
7	187.25	502.25	574.25

3	6	1
0.000186061	-1	0.749784	0.000662386
6	141.45	364.55	418.65
7	187.25	502.25	574.25
8	248.05	707.75	804.15

3	7	0

3	8	1
0.000310922	1	1.48103	1.9908e-05
8	260.55	686.45	65.85
9	360.95	866.45	84.25
10	461.75	1023.75	100.85


Event	9
5
3.90312	-0.738593	2.11403	3252.6	-2784.35	-1681.3
6.0858	0.433202	1.71338	5071.5	5020.04	720.662
4.54554	-0.529466	3.13346	3787.95	30.8168	3787.82
4.23768	-0.0542358	0.416301	3531.4	1428.03	-3229.78
4.7229	0.291186	-2.83211	3935.75	-1198.68	3748.77

9
3	0	0

3	1	0

3	2	0

3	3	0

3	4	0

3	5	0

3	6	0

3	7	0

3	8	0


