Event	0
5
6.09815	0.302654	1.51564	5081.8	-5074.07	280.161
6.09815	0.302654	1.51564	5081.8	5074.07	-280.161
3.23144	0.702858	-1.98293	2692.86	-2467.39	1078.67
7.57284	-0.418544	-1.34287	6310.7	-6147.48	-1425.98
6.52969	-0.879646	1.86002	5441.41	5215.39	1551.96

5
3	0	3
0.000217579	-1	1.27136	0.00190067
0	1.4	25.25	7.75
1	2.55	50.25	15.45
2	3.75	80.25	24.75
2.4083e-05	1	1.27172	0.00180519
0	1.4	25.25	7.75
1	3.05	50.25	15.45
2	5.05	80.25	24.75
0.000287132	1	2.35508	0.0016005
0	-6.65	22.65	-23.55
1	-13.75	46.95	-48.85
2	-21.75	75.15	-78.05

3	1	8
0.000112801	-1	1.27214	0.00347137
1	2.55	50.25	15.45
2	3.75	80.25	24.75
3	4.85	110.3	33.95
0.00164674	1	1.2726	0.00438499
1	2.55	50.25	15.45
2	3.75	80.25	24.75
3	6.45	110.317	33.95
0.0012162	-1	1.2726	0.00305688
1	2.55	50.25	15.45
2	5.05	80.25	24.75
3	6.45	110.317	33.95
0.000441429	1	1.27201	0.00373352
1	3.05	50.25	15.45
2	3.75	80.25	24.75
3	4.85	110.3	33.95
0.00243548	-1	1.27201	0.00240016
1	3.05	50.25	15.45
2	5.05	80.25	24.75
3	4.85	110.3	33.95
0.00220012	1	1.27247	0.00464714
1	3.05	50.25	15.45
2	3.75	80.25	24.75
3	6.45	110.317	33.95
0.0006661	-1	1.27247	0.00331783
1	3.05	50.25	15.45
2	5.05	80.25	24.75
3	6.45	110.317	33.95
0.000166225	1	2.35436	0.000172615
1	-13.75	46.95	-48.85
2	-21.75	75.15	-78.05
3	-29.85	104.25	-108.15

3	2	6
0.00018735	-1	1.27305	0.00164974
2	3.75	80.25	24.75
3	4.85	110.3	33.95
4	6.05	150.25	46.25
0.000362638	1	1.2729	0.00379086
2	3.75	80.25	24.75
3	6.45	110.317	33.95
4	10.55	150.25	46.35
0.00104777	1	1.27272	0.000986099
2	5.05	80.25	24.75
3	4.85	110.3	33.95
4	6.05	150.25	46.25
0.00161457	-1	1.27283	0.00259817
2	5.05	80.25	24.75
3	6.45	110.317	33.95
4	6.05	150.25	46.25
0.00158808	1	1.27257	0.00313127
2	5.05	80.25	24.75
3	6.45	110.317	33.95
4	10.55	150.25	46.35
0.000190797	1	2.35556	0.00221109
2	-21.75	75.15	-78.05
3	-29.85	104.25	-108.15
4	-40.85	144.85	-150.25

3	3	5
0.000208836	-1	1.27227	8.97646e-05
3	4.85	110.3	33.95
4	6.05	150.25	46.25
5	7.65	276.05	84.95
0.000540203	-1	1.27229	0.00119698
3	4.85	110.3	33.95
4	10.55	150.25	46.35
5	22.75	276.05	85.15
0.000274317	1	1.27193	0.000784159
3	6.45	110.317	33.95
4	6.05	150.25	46.25
5	7.65	276.05	84.95
6.76814e-05	-1	1.27194	0.00188816
3	6.45	110.317	33.95
4	10.55	150.25	46.35
5	22.75	276.05	85.15
0.000173784	1	2.35595	0.0014317
3	-29.85	104.25	-108.15
4	-40.85	144.85	-150.25
5	-69.75	257.65	-266.45

3	4	5
0.000201652	-1	1.27189	0.000858426
4	6.05	150.25	46.25
5	7.65	276.05	84.95
6	5.95	406.05	125.05
8.9758e-05	-1	1.27255	0.00033915
4	6.05	150.25	46.25
5	22.75	276.05	85.15
6	37.15	394.55	121.85
7.79549e-05	1	1.27197	0.00103045
4	10.55	150.25	46.35
5	7.65	276.05	84.95
6	5.95	406.05	125.05
0.000197333	1	1.27263	0.000510812
4	10.55	150.25	46.35
5	22.75	276.05	85.15
6	37.15	394.55	121.85
0.000177791	1	2.35528	0.000100851
4	-40.85	144.85	-150.25
5	-69.75	257.65	-266.45
6	-100.15	388.35	-400.35


Event	1
5
1.22625	0.071171	2.10858	1021.88	-877.639	-523.437
3.2302	0.730601	-0.638977	2691.84	-1605.34	-2160.75
5.13486	-0.483654	-3.01335	4279.05	-547.258	4243.91
5.6372	-0.649999	1.34677	4697.66	4580.27	-1043.62
3.78527	-0.638108	2.28207	3154.4	2389.56	2059.18

5
3	0	4
0.000175096	1	2.17961	0.00208712
0	5.35	23.25	-16.65
1	11.25	48.15	-34.45
2	18.05	76.25	-54.65
0.000182906	1	2.1797	0.00233436
0	5.35	23.25	-16.65
1	11.75	50.25	-35.95
2	18.05	76.25	-54.65
0.000223154	1	2.18009	0.00111985
0	5.85	25.25	-18.05
1	11.25	48.15	-34.45
2	18.05	76.25	-54.65
0.000227553	1	2.18014	0.00145125
0	5.85	25.25	-18.05
1	11.75	50.25	-35.95
2	18.05	76.25	-54.65

3	1	0

3	2	1
0.000222807	1	2.18018	0.00106239
2	18.05	76.25	-54.65
3	25.25	105.35	-75.55
4	35.25	144.45	-103.75

3	3	1
0.000214992	1	2.18028	0.000875235
3	25.25	105.35	-75.55
4	35.25	144.45	-103.75
5	65.05	253.45	-182.55

3	4	1
0.000212036	1	2.18046	0.00124049
4	35.25	144.45	-103.75
5	65.05	253.45	-182.55
6	106.95	391.75	-283.55


Event	2
5
2.67888	0.255427	-2.31532	2232.4	1641.73	-1512.72
1.54691	-0.862071	-2.96864	1289.09	-221.837	1269.86
7.3732	0.240263	1.65426	6144.34	6122.95	512.22
4.78202	-0.872463	0.21171	3985.02	837.378	-3896.05
6.30126	0.886216	2.49753	5251.05	3153	4199.06

5
3	0	1
9.61658e-05	1	1.33242	0.00058198
0	-2.05	25.25	6.15
1	-3.95	50.25	12.25
2	-6.15	80.25	19.55

3	1	1
0.00011026	1	1.33269	5.62668e-05
1	-3.95	50.25	12.25
2	-6.15	80.25	19.55
3	-8.25	110.25	26.85

3	2	1
0.000212887	1	1.33299	0.000663161
2	-6.15	80.25	19.55
3	-8.25	110.25	26.85
4	-10.75	150.25	36.55

3	3	1
0.000158693	1	1.3325	0.00163734
3	-8.25	110.25	26.85
4	-10.75	150.25	36.55
5	-16.95	276.05	67.25

3	4	1
0.000168429	1	1.33238	0.00138521
4	-10.75	150.25	36.55
5	-16.95	276.05	67.25
6	-20.55	406.05	98.75


Event	3
5
7.68446	-0.502642	-1.6623	6403.72	6376.93	-585.134
5.13701	-0.070214	2.72134	4280.84	1746.54	3908.35
2.71959	0.318272	0.718477	2266.32	1491.78	-1706.11
7.80456	0.471727	-0.459304	6503.8	-2883.29	-5829.76
2.05434	-0.489571	2.36505	1711.95	1199.77	1221.2

5
3	0	0

3	1	0

3	2	0

3	3	0

3	4	0


Event	4
5
2.13551	0.161589	2.16639	1779.59	-1473.18	-998.352
6.2982	-0.23461	-0.243157	5248.5	-1263.67	-5094.1
6.6498	0.0624263	-1.71597	5541.5	-5483.2	801.684
1.3134	-0.827268	0.515861	1094.5	539.898	-952.068
2.1323	0.603833	-2.00702	1776.92	-1610.51	750.79

5
3	0	0

3	1	0

3	2	0

3	3	0

3	4	0


Event	5
5
6.93994	0.153472	2.86126	5783.28	-1600.09	-5557.53
6.552	0.924241	-1.76823	5460	-5353.93	1071
4.8903	0.39949	-2.84146	4075.25	-1204.83	3893.07
1.39472	0.587344	2.87281	1162.26	308.644	1120.53
8.59724	0.310995	1.39672	7164.37	7056.09	-1240.85

5
3	0	1
6.43323e-06	-1	1.26595	0.000125408
0	4.45	25.25	8.15
1	9.05	50.25	16.15
2	14.05	77.45	24.85

3	1	1
0.000290515	1	1.26482	0.00239468
1	9.05	50.25	16.15
2	14.05	77.45	24.85
3	19.65	106.55	34.25

3	2	1
3.98486e-05	1	1.26437	0.00150406
2	14.05	77.45	24.85
3	19.65	106.55	34.25
4	27.25	145.75	46.85

3	3	1
0.00014016	1	1.26463	0.000982642
3	19.65	106.55	34.25
4	27.25	145.75	46.85
5	50.95	261.15	84.15

3	4	1
0.000142675	1	1.26441	0.000531316
4	27.25	145.75	46.85
5	50.95	261.15	84.15
6	81.75	398.25	128.55


Event	6
5
5.89757	0.311659	2.11632	4914.64	-4201.31	-2550.04
3.82015	0.0918735	2.62077	3183.46	1584.07	2761.36
5.85854	-0.339516	-3.01673	4882.12	-607.988	4844.11
6.19613	-0.998217	-0.188759	5163.44	-968.867	-5071.73
6.16937	-0.0550082	-0.996669	5141.14	-4316.84	-2792.16

5
3	0	0

3	1	0

3	2	0

3	3	0

3	4	0


Event	7
5
6.28144	-0.385204	1.46556	5234.54	-5205.58	549.872
5.33546	-0.309561	-1.84601	4446.21	-4278.89	1208.25
7.06289	0.0844058	2.3603	5885.74	4144.74	4178.88
3.32207	0.0410974	-0.540006	2768.39	-1423.34	-2374.46
2.54322	0.960296	2.75092	2119.35	807.063	1959.66

5
3	0	1
9.56823e-05	-1	1.94662	0.000658393
0	2.65	25.25	-10.05
1	5.05	50.25	-19.95
2	7.85	80.25	-31.85

3	1	1
0.000219546	-1	1.94705	0.000213146
1	5.05	50.25	-19.95
2	7.85	80.25	-31.85
3	10.45	110.25	-43.75

3	2	1
0.000135898	-1	1.94616	0.00200665
2	7.85	80.25	-31.85
3	10.45	110.25	-43.75
4	13.55	148.05	-58.65

3	3	1
0.000205468	-1	1.94588	0.00144923
3	10.45	110.25	-43.75
4	13.55	148.05	-58.65
5	21.85	276.05	-109.25

3	4	1
0.000188882	-1	1.94656	9.58443e-05
4	13.55	148.05	-58.65
5	21.85	276.05	-109.25
6	26.65	390.85	-154.55


Event	8
5
6.47947	0.929422	1.16511	5399.56	-4961.28	2130.95
6.28961	-0.76721	1.75573	5241.34	5151.97	963.783
3.87401	0.0906945	1.32177	3228.35	3128.76	-795.667
1.15867	0.785201	-1.88804	965.556	-917.372	301.208
8.51388	-0.102612	2.62555	7094.9	3500.91	6171

5
3	0	3
0.000318468	1	2.27277	0.00108504
0	-4.35	23.75	-20.35
1	-9.15	50.25	-43.15
2	-13.85	77.55	-66.55
0.00028635	1	2.27156	0.00133014
0	-4.65	25.25	-21.75
1	-9.15	50.25	-43.15
2	-13.85	77.55	-66.55
0.000455594	1	1.48126	0.00122261
0	5.95	22.95	2.15
1	12.45	47.55	4.45
2	20.25	75.65	7.05

3	1	2
0.000147643	1	2.27213	0.000203848
1	-9.15	50.25	-43.15
2	-13.85	77.55	-66.55
3	-18.75	106.75	-91.55
0.000192806	1	1.48151	0.000717521
1	12.45	47.55	4.45
2	20.25	75.65	7.05
3	28.45	104.55	9.75

3	2	2
0.000150423	1	2.272	4.48227e-05
2	-13.85	77.55	-66.55
3	-18.75	106.75	-91.55
4	-25.15	146.15	-125.25
0.000339648	1	1.481	0.000295877
2	20.25	75.65	7.05
3	28.45	104.55	9.75
4	40.45	144.95	13.55

3	3	2
0.000211073	1	2.272	4.52995e-05
3	-18.75	106.75	-91.55
4	-25.15	146.15	-125.25
5	-41.45	257.85	-220.55
0.000317713	1	1.48065	0.00041914
3	28.45	104.55	9.75
4	40.45	144.95	13.55
5	78.05	260.45	24.55

3	4	2
0.000187197	1	2.27219	0.00033164
4	-25.15	146.15	-125.25
5	-41.45	257.85	-220.55
6	-57.85	391.95	-334.65
0.000307327	1	1.48146	0.0020355
4	40.45	144.95	13.55
5	78.05	260.45	24.55
6	123.05	382.45	36.05


Event	9
5
3.90312	-0.738593	2.11403	3252.6	-2784.35	-1681.3
6.0858	0.433202	1.71338	5071.5	5020.04	720.662
4.54554	-0.529466	3.13346	3787.95	30.8168	3787.82
4.23768	-0.0542358	0.416301	3531.4	1428.03	-3229.78
4.7229	0.291186	-2.83211	3935.75	-1198.68	3748.77

5
3	0	2
0.000175521	1	1.15192	0.00218546
0	-3.55	25.25	11.45
1	-6.95	50.25	22.65
2	-10.65	78.45	35.35
0.000212525	1	1.15204	0.00195193
0	-3.55	25.25	11.45
1	-6.95	50.25	22.65
2	-10.85	80.25	36.15

3	1	2
0.000296859	1	1.15118	0.000713587
1	-6.95	50.25	22.65
2	-10.65	78.45	35.35
3	-14.25	107.85	48.55
0.000230932	1	1.1512	0.000272393
1	-6.95	50.25	22.65
2	-10.85	80.25	36.15
3	-14.25	107.85	48.55

3	2	0

3	3	1
0.000189906	1	1.15036	0.000438929
3	-14.25	107.85	48.55
4	-18.85	147.15	66.25
5	-30.85	264.95	119.15

3	4	1
0.00020021	1	1.15054	6.84261e-05
4	-18.85	147.15	66.25
5	-30.85	264.95	119.15
6	-40.45	389.05	174.75


